[
  {
    "name": "id",
    "dbType": "increments",
    "htmlType": "",
    "validations": "",
    "searchable": false,
    "fillable": false,
    "primary": true,
    "inForm": false,
    "inIndex": true
  },
  {
    "name": "active",
    "dbType": "string",
    "htmlType": "radio,Activo:Activo,Inactivo:Activo",
    "validations": "required",
    "searchable": false,
    "fillable": true,
    "primary": false,
    "inForm": true,
    "inIndex": true
  },
  {
    "name": "Marca",
    "dbType": "string",
    "htmlType": "select,DJI:DJI,Maverick:Maverick,Parrot:Parrot,Walkera:Walkera,Yuneec:Yuneec",
    "validations": "required|min:1|max:255",
    "searchable": true,
    "fillable": true,
    "primary": false,
    "inForm": true,
    "inIndex": true
  },
  {
    "name": "modelo",
    "dbType": "string:nullable",
    "htmlType": "text",
    "validations": "required|min:5|max:255",
    "searchable": true,
    "fillable": true,
    "primary": false,
    "inForm": true,
    "inIndex": true
  },
  {
    "name": "descripcion",
    "dbType": "text",
    "htmlType": "textarea",
    "validations": "",
    "searchable": false,
    "fillable": true,
    "primary": false,
    "inForm": true,
    "inIndex": false
  },
  {
    "name": "serial",
    "dbType": "string",
    "htmlType": "text",
    "validations": "required|min:5|max:255",
    "searchable": true,
    "fillable": true,
    "primary": false,
    "inForm": true,
    "inIndex": true
  },
  {
  "name": "motores",
  "dbType": "integer",
  "htmlType": "number",
  "validations": "numeric",
  "searchable": false,
  "fillable": true,
  "primary": false,
  "inForm": true,
  "inIndex": true
},
  {
    "type": "relation",
    "relation": "1tM,Mission,mission_id,id"
  },
  {
    "name": "created_at",
    "dbType": "timestamp",
    "htmlType": "",
    "validations": "",
    "searchable": false,
    "fillable": false,
    "primary": false,
    "inForm": false,
    "inIndex": false
  },
  {
    "name": "updated_at",
    "dbType": "timestamp",
    "htmlType": "",
    "validations": "",
    "searchable": false,
    "fillable": false,
    "primary": false,
    "inForm": false,
    "inIndex": false
  }
]