[
  {
    "name": "id",
    "dbType": "increments",
    "htmlType": "",
    "validations": "",
    "searchable": false,
    "fillable": false,
    "primary": true,
    "inForm": false,
    "inIndex": true
  },
  {
    "name": "active",
    "dbType": "integer:default,1",
    "htmlType": "radio,Activo:1,Inactivo:0",
    "validations": "required|numeric|min:0|max:1",
    "searchable": false,
    "fillable": true,
    "primary": false,
    "inForm": true,
    "inIndex": true
  },
  {
    "name": "expired_at",
    "dbType": "timestamp:nullable",
    "htmlType": "",
    "validations": "",
    "searchable": false,
    "fillable": false,
    "primary": false,
    "inForm": false,
    "inIndex": false
  },
  {
    "name": "purchased",
    "dbType": "integer:default,1",
    "htmlType": "radio,Activo:1,Inactivo:0",
    "validations": "required|numeric|min:0|max:1",
    "searchable": false,
    "fillable": true,
    "primary": false,
    "inForm": true,
    "inIndex": true
  },
  {
    "name": "customer_id",
    "dbType": "integer:unsigned:foreign,customers,id",
    "htmlType": "number",
    "validations": "numeric|min:1|required",
    "searchable": true,
    "fillable": true,
    "primary": false,
    "inForm": true,
    "inIndex": true
  },
  {
    "name": "course_id",
    "dbType": "integer:unsigned:foreign,courses,id",
    "htmlType": "number",
    "validations": "numeric|min:1|required",
    "searchable": true,
    "fillable": true,
    "primary": false,
    "inForm": true,
    "inIndex": true
  },
  {
    "name": "created_at",
    "dbType": "timestamp",
    "htmlType": "",
    "validations": "",
    "searchable": false,
    "fillable": false,
    "primary": false,
    "inForm": false,
    "inIndex": false
  },
  {
    "name": "updated_at",
    "dbType": "timestamp",
    "htmlType": "",
    "validations": "",
    "searchable": false,
    "fillable": false,
    "primary": false,
    "inForm": false,
    "inIndex": false
  },
  {
    "type": "relation",
    "relation": "mt1,customer,customer_id,id"
  },
  {
    "type": "relation",
    "relation": "mt1,course,course_id,id"
  }
]