[
  {
    "name": "id",
    "dbType": "increments",
    "htmlType": "",
    "validations": "",
    "searchable": false,
    "fillable": false,
    "primary": true,
    "inForm": false,
    "inIndex": true
  },
  {
    "name": "active",
    "dbType": "integer:default,1",
    "htmlType": "radio,Activo:1,Inactivo:0",
    "validations": "required|numeric|min:0|max:1",
    "searchable": false,
    "fillable": true,
    "primary": false,
    "inForm": true,
    "inIndex": true
  },
  {
    "name": "user_id",
    "dbType": "integer:unsigned:foreign,users,id",
    "htmlType": "number",
    "validations": "numeric|min:1|required",
    "searchable": false,
    "fillable": true,
    "primary": false,
    "inForm": true,
    "inIndex": true
  },
  {
    "type": "relation",
    "relation": "1t1,User,user_id,id"
  },
  {
    "name": "created_at",
    "dbType": "timestamp",
    "htmlType": "",
    "validations": "",
    "searchable": false,
    "fillable": false,
    "primary": false,
    "inForm": false,
    "inIndex": false
  },
  {
    "name": "updated_at",
    "dbType": "timestamp",
    "htmlType": "",
    "validations": "",
    "searchable": false,
    "fillable": false,
    "primary": false,
    "inForm": false,
    "inIndex": false
  }
]